country_decisions = {
	
	# xhazobkult_sanguine_ritual = {
		# potential = {
			# religion = xhazobkult
		# }
		# allow = {
			# NOT = { has_country_modifier = xhazobkult_performed_sanguine_ritual }
			# hidden_trigger = {
				# NOT = { has_country_flag = xhazobkult_sacrifice_menu_flag }
			# }
		# }
		# effect = {
			# country_event = {
				# id = xhazobkult_events.1
			# }
		# }
		# ai_will_do = {
			# factor = 1
		# }
	# }
	
	xhazobkult_deal_with_demons = {
		potential = {
			religion = xhazobkult
		}
		allow = {
			custom_trigger_tooltip = {
				tooltip = xhazobkult_has_not_dealt_with_demons_tt
				NOT = { has_ruler_flag = xhazobkult_dealt_with_demons }
			}
			NOT = {
				ruler_has_personality = mage_personality
			}
			patriarch_authority = 0.1
		}
		effect = {
			add_patriarch_authority = -0.1
			country_event = {
				id = xhazobkult_events.1000
			}
			hidden_effect = {
				set_ruler_flag = xhazobkult_dealt_with_demons
			}
		}
	}
}